code/OTHER FILES/OpenCore/sdr_ctrl/trunk/verif/log/core_SDR_8BIT_basic_test1.log
Reading D:/Actel/Libero_v9.1/Model/tcl/vsim/pref.tcl 

# 6.6d

# vsim +basic_test1 -do run.do -c tb_core 
# //  ModelSim ACTEL 6.6d Nov  2 2010 
# //
# //  Copyright 1991-2010 Mentor Graphics Corporation
# //              All Rights Reserved.
# //
# //  THIS WORK CONTAINS TRADE SECRET AND 
# //  PROPRIETARY INFORMATION WHICH IS THE PROPERTY
# //  OF MENTOR GRAPHICS CORPORATION OR ITS LICENSORS
# //  AND IS SUBJECT TO LICENSE TERMS.
# //
# Loading sv_std.std
# Loading work.tb_core
# Loading work.sdrc_core
# Loading work.sdrc_req_gen
# Loading work.sdrc_bank_ctl
# Loading work.sdrc_bank_fsm
# Loading work.sdrc_xfr_ctl
# Loading work.sdrc_bs_convert
# Loading work.mt48lc8m8a2
# do run.do 
# -------------------------------------- 
#  Case-1: Single Write/Read Case        
# -------------------------------------- 
# Write Address: 00040000, Burst Size:   4
# Status: Burst-No:           0  Write Address: 00040000  WriteData: 12153524 
# Status: Burst-No:           1  Write Address: 00040000  WriteData: c0895e81 
# Status: Burst-No:           2  Write Address: 00040000  WriteData: 8484d609 
# Status: Burst-No:           3  Write Address: 00040000  WriteData: b1f05663 
# READ STATUS: Burst-No:           0 Addr: 00040000 Rxd: 12153524
# READ STATUS: Burst-No:           1 Addr: 00040002 Rxd: c0895e81
# READ STATUS: Burst-No:           2 Addr: 00040004 Rxd: 8484d609
# READ STATUS: Burst-No:           3 Addr: 00040006 Rxd: b1f05663
# -------------------------------------- 
#  Case-2: Repeat same transfer once again 
# ----------------------------------------
# Write Address: 00040000, Burst Size:   4
# Status: Burst-No:           0  Write Address: 00040000  WriteData: 06b97b0d 
# Status: Burst-No:           1  Write Address: 00040000  WriteData: 46df998d 
# Status: Burst-No:           2  Write Address: 00040000  WriteData: b2c28465 
# Status: Burst-No:           3  Write Address: 00040000  WriteData: 89375212 
# READ STATUS: Burst-No:           0 Addr: 00040000 Rxd: 06b97b0d
# READ STATUS: Burst-No:           1 Addr: 00040002 Rxd: 46df998d
# READ STATUS: Burst-No:           2 Addr: 00040004 Rxd: b2c28465
# READ STATUS: Burst-No:           3 Addr: 00040006 Rxd: 89375212
# Write Address: 00400000, Burst Size:   5
# Status: Burst-No:           0  Write Address: 00400000  WriteData: 00f3e301 
# Status: Burst-No:           1  Write Address: 00400000  WriteData: 06d7cd0d 
# Status: Burst-No:           2  Write Address: 00400000  WriteData: 3b23f176 
# Status: Burst-No:           3  Write Address: 00400000  WriteData: 1e8dcd3d 
# Status: Burst-No:           4  Write Address: 00400000  WriteData: 76d457ed 
# READ STATUS: Burst-No:           0 Addr: 00400000 Rxd: 00f3e301
# READ STATUS: Burst-No:           1 Addr: 00400002 Rxd: 06d7cd0d
# READ STATUS: Burst-No:           2 Addr: 00400004 Rxd: 3b23f176
# READ STATUS: Burst-No:           3 Addr: 00400006 Rxd: 1e8dcd3d
# READ STATUS: Burst-No:           4 Addr: 00400008 Rxd: 76d457ed
# ----------------------------------------
#  Case-3 Create a Page Cross Over        
# ----------------------------------------
# Write Address: 00000ff0, Burst Size:   8
# Status: Burst-No:           0  Write Address: 00000ff0  WriteData: 462df78c 
# Status: Burst-No:           1  Write Address: 00000ff0  WriteData: 7cfde9f9 
# Status: Burst-No:           2  Write Address: 00000ff0  WriteData: e33724c6 
# Status: Burst-No:           3  Write Address: 00000ff0  WriteData: e2f784c5 
# Status: Burst-No:           4  Write Address: 00000ff0  WriteData: d513d2aa 
# Status: Burst-No:           5  Write Address: 00000ff0  WriteData: 72aff7e5 
# Status: Burst-No:           6  Write Address: 00000ff0  WriteData: bbd27277 
# Status: Burst-No:           7  Write Address: 00000ff0  WriteData: 8932d612 
# Write Address: 00010ff4, Burst Size:  15
# Status: Burst-No:           0  Write Address: 00010ff4  WriteData: 47ecdb8f 
# Status: Burst-No:           1  Write Address: 00010ff4  WriteData: 793069f2 
# Status: Burst-No:           2  Write Address: 00010ff4  WriteData: e77696ce 
# Status: Burst-No:           3  Write Address: 00010ff4  WriteData: f4007ae8 
# Status: Burst-No:           4  Write Address: 00010ff4  WriteData: e2ca4ec5 
# Status: Burst-No:           5  Write Address: 00010ff4  WriteData: 2e58495c 
# Status: Burst-No:           6  Write Address: 00010ff4  WriteData: de8e28bd 
# Status: Burst-No:           7  Write Address: 00010ff4  WriteData: 96ab582d 
# Status: Burst-No:           8  Write Address: 00010ff4  WriteData: b2a72665 
# Status: Burst-No:           9  Write Address: 00010ff4  WriteData: b1ef6263 
# Status: Burst-No:          10  Write Address: 00010ff4  WriteData: 0573870a 
# Status: Burst-No:          11  Write Address: 00010ff4  WriteData: c03b2280 
# Status: Burst-No:          12  Write Address: 00010ff4  WriteData: 10642120 
# Status: Burst-No:          13  Write Address: 00010ff4  WriteData: 557845aa 
# Status: Burst-No:          14  Write Address: 00010ff4  WriteData: cecccc9d 
# Write Address: 00020ff8, Burst Size:  15
# Status: Burst-No:           0  Write Address: 00020ff8  WriteData: cb203e96 
# Status: Burst-No:           1  Write Address: 00020ff8  WriteData: 8983b813 
# Status: Burst-No:           2  Write Address: 00020ff8  WriteData: 86bc380d 
# Status: Burst-No:           3  Write Address: 00020ff8  WriteData: a9a7d653 
# Status: Burst-No:           4  Write Address: 00020ff8  WriteData: 359fdd6b 
# Status: Burst-No:           5  Write Address: 00020ff8  WriteData: eaa62ad5 
# Status: Burst-No:           6  Write Address: 00020ff8  WriteData: 81174a02 
# Status: Burst-No:           7  Write Address: 00020ff8  WriteData: d7563eae 
# Status: Burst-No:           8  Write Address: 00020ff8  WriteData: 0effe91d 
# Status: Burst-No:           9  Write Address: 00020ff8  WriteData: e7c572cf 
# Status: Burst-No:          10  Write Address: 00020ff8  WriteData: 11844923 
# Status: Burst-No:          11  Write Address: 00020ff8  WriteData: 0509650a 
# Status: Burst-No:          12  Write Address: 00020ff8  WriteData: e5730aca 
# Status: Burst-No:          13  Write Address: 00020ff8  WriteData: 9e314c3c 
# Status: Burst-No:          14  Write Address: 00020ff8  WriteData: 7968bdf2 
# Write Address: 00030ffc, Burst Size:  15
# Status: Burst-No:           0  Write Address: 00030ffc  WriteData: 452e618a 
# Status: Burst-No:           1  Write Address: 00030ffc  WriteData: 20c4b341 
# Status: Burst-No:           2  Write Address: 00030ffc  WriteData: ec4b34d8 
# Status: Burst-No:           3  Write Address: 00030ffc  WriteData: 3c20f378 
# Status: Burst-No:           4  Write Address: 00030ffc  WriteData: c48a1289 
# Status: Burst-No:           5  Write Address: 00030ffc  WriteData: 75c50deb 
# Status: Burst-No:           6  Write Address: 00030ffc  WriteData: 5b0265b6 
# Status: Burst-No:           7  Write Address: 00030ffc  WriteData: 634bf9c6 
# Status: Burst-No:           8  Write Address: 00030ffc  WriteData: 571513ae 
# Status: Burst-No:           9  Write Address: 00030ffc  WriteData: de7502bc 
# Status: Burst-No:          10  Write Address: 00030ffc  WriteData: 150fdd2a 
# Status: Burst-No:          11  Write Address: 00030ffc  WriteData: 85d79a0b 
# Status: Burst-No:          12  Write Address: 00030ffc  WriteData: b897be71 
# Status: Burst-No:          13  Write Address: 00030ffc  WriteData: 42f24185 
# Status: Burst-No:          14  Write Address: 00030ffc  WriteData: 27f2554f 
# Write Address: 00040fe0, Burst Size:  15
# Status: Burst-No:           0  Write Address: 00040fe0  WriteData: 9dcc603b 
# Status: Burst-No:           1  Write Address: 00040fe0  WriteData: 1d06333a 
# Status: Burst-No:           2  Write Address: 00040fe0  WriteData: bf23327e 
# Status: Burst-No:           3  Write Address: 00040fe0  WriteData: 0aaa4b15 
# Status: Burst-No:           4  Write Address: 00040fe0  WriteData: 78d99bf1 
# Status: Burst-No:           5  Write Address: 00040fe0  WriteData: 6c9c4bd9 
# Status: Burst-No:           6  Write Address: 00040fe0  WriteData: 31230762 
# Status: Burst-No:           7  Write Address: 00040fe0  WriteData: 2635fb4c 
# Status: Burst-No:           8  Write Address: 00040fe0  WriteData: 4fa1559f 
# Status: Burst-No:           9  Write Address: 00040fe0  WriteData: 47b9a18f 
# Status: Burst-No:          10  Write Address: 00040fe0  WriteData: 7c6da9f8 
# Status: Burst-No:          11  Write Address: 00040fe0  WriteData: dbcd60b7 
# Status: Burst-No:          12  Write Address: 00040fe0  WriteData: cfc4569f 
# Status: Burst-No:          13  Write Address: 00040fe0  WriteData: ae7d945c 
# Status: Burst-No:          14  Write Address: 00040fe0  WriteData: adcbc05b 
# Write Address: 00050fe4, Burst Size:  15
# Status: Burst-No:           0  Write Address: 00050fe4  WriteData: 44de3789 
# Status: Burst-No:           1  Write Address: 00050fe4  WriteData: a4ae3249 
# Status: Burst-No:           2  Write Address: 00050fe4  WriteData: e8233ed0 
# Status: Burst-No:           3  Write Address: 00050fe4  WriteData: ebfec0d7 
# Status: Burst-No:           4  Write Address: 00050fe4  WriteData: a8c7fc51 
# Status: Burst-No:           5  Write Address: 00050fe4  WriteData: 4b212f96 
# Status: Burst-No:           6  Write Address: 00050fe4  WriteData: 061d7f0c 
# Status: Burst-No:           7  Write Address: 00050fe4  WriteData: e12ccec2 
# Status: Burst-No:           8  Write Address: 00050fe4  WriteData: 6457edc8 
# Status: Burst-No:           9  Write Address: 00050fe4  WriteData: bb825a77 
# Status: Burst-No:          10  Write Address: 00050fe4  WriteData: 1ef2ed3d 
# Status: Burst-No:          11  Write Address: 00050fe4  WriteData: 090cdb12 
# Status: Burst-No:          12  Write Address: 00050fe4  WriteData: bf05007e 
# Status: Burst-No:          13  Write Address: 00050fe4  WriteData: 36e5816d 
# Status: Burst-No:          14  Write Address: 00050fe4  WriteData: 1cd9e739 
# Write Address: 00060fe8, Burst Size:  15
# Status: Burst-No:           0  Write Address: 00060fe8  WriteData: 0fd28f1f 
# Status: Burst-No:           1  Write Address: 00060fe8  WriteData: e9ebf6d3 
# Status: Burst-No:           2  Write Address: 00060fe8  WriteData: 42d92f85 
# Status: Burst-No:           3  Write Address: 00060fe8  WriteData: bc148878 
# Status: Burst-No:           4  Write Address: 00060fe8  WriteData: 2dda595b 
# Status: Burst-No:           5  Write Address: 00060fe8  WriteData: 248b4b49 
# Status: Burst-No:           6  Write Address: 00060fe8  WriteData: 9ff2ae3f 
# Status: Burst-No:           7  Write Address: 00060fe8  WriteData: 150caf2a 
# Status: Burst-No:           8  Write Address: 00060fe8  WriteData: 2c156358 
# Status: Burst-No:           9  Write Address: 00060fe8  WriteData: c33f3886 
# Status: Burst-No:          10  Write Address: 00060fe8  WriteData: c71a0c8e 
# Status: Burst-No:          11  Write Address: 00060fe8  WriteData: ce2ff29c 
# Status: Burst-No:          12  Write Address: 00060fe8  WriteData: 7d3599fa 
# Status: Burst-No:          13  Write Address: 00060fe8  WriteData: 937dbc26 
# Status: Burst-No:          14  Write Address: 00060fe8  WriteData: 39961773 
# Write Address: 00070fec, Burst Size:  15
# Status: Burst-No:           0  Write Address: 00070fec  WriteData: d18bb4a3 
# Status: Burst-No:           1  Write Address: 00070fec  WriteData: 9799a82f 
# Status: Burst-No:           2  Write Address: 00070fec  WriteData: d9d292b3 
# Status: Burst-No:           3  Write Address: 00070fec  WriteData: afd8565f 
# Status: Burst-No:           4  Write Address: 00070fec  WriteData: 22290d44 
# Status: Burst-No:           5  Write Address: 00070fec  WriteData: 7bf8fdf7 
# Status: Burst-No:           6  Write Address: 00070fec  WriteData: e59b36cb 
# Status: Burst-No:           7  Write Address: 00070fec  WriteData: f3091ae6 
# Status: Burst-No:           8  Write Address: 00070fec  WriteData: 2d28db5a 
# Status: Burst-No:           9  Write Address: 00070fec  WriteData: 14cfc129 
# Status: Burst-No:          10  Write Address: 00070fec  WriteData: f682e2ed 
# Status: Burst-No:          11  Write Address: 00070fec  WriteData: ed536cda 
# Status: Burst-No:          12  Write Address: 00070fec  WriteData: b29fb665 
# Status: Burst-No:          13  Write Address: 00070fec  WriteData: da8ae2b5 
# Status: Burst-No:          14  Write Address: 00070fec  WriteData: efbe94df 
# Write Address: 00080fd0, Burst Size:  15
# Status: Burst-No:           0  Write Address: 00080fd0  WriteData: 3cf11979 
# Status: Burst-No:           1  Write Address: 00080fd0  WriteData: 2231ff44 
# Status: Burst-No:           2  Write Address: 00080fd0  WriteData: e8740cd0 
# Status: Burst-No:           3  Write Address: 00080fd0  WriteData: 15090b2a 
# Status: Burst-No:           4  Write Address: 00080fd0  WriteData: 55f6adab 
# Status: Burst-No:           5  Write Address: 00080fd0  WriteData: 076fcf0e 
# Status: Burst-No:           6  Write Address: 00080fd0  WriteData: 6e5daddc 
# Status: Burst-No:           7  Write Address: 00080fd0  WriteData: cd5ebc9a 
# Status: Burst-No:           8  Write Address: 00080fd0  WriteData: fedf72fd 
# Status: Burst-No:           9  Write Address: 00080fd0  WriteData: e1f102c3 
# Status: Burst-No:          10  Write Address: 00080fd0  WriteData: 2b0eed56 
# Status: Burst-No:          11  Write Address: 00080fd0  WriteData: 2779e94e 
# Status: Burst-No:          12  Write Address: 00080fd0  WriteData: b3d97667 
# Status: Burst-No:          13  Write Address: 00080fd0  WriteData: 8531340a 
# Status: Burst-No:          14  Write Address: 00080fd0  WriteData: 5b6fb9b6 
# Write Address: 00090fd4, Burst Size:  15
# Status: Burst-No:           0  Write Address: 00090fd4  WriteData: 9c0e8a38 
# Status: Burst-No:           1  Write Address: 00090fd4  WriteData: 3cd18779 
# Status: Burst-No:           2  Write Address: 00090fd4  WriteData: dc2bc4b8 
# Status: Burst-No:           3  Write Address: 00090fd4  WriteData: 4a74bf94 
# Status: Burst-No:           4  Write Address: 00090fd4  WriteData: 49c65d93 
# Status: Burst-No:           5  Write Address: 00090fd4  WriteData: 823f2c04 
# Status: Burst-No:           6  Write Address: 00090fd4  WriteData: acb7ca59 
# Status: Burst-No:           7  Write Address: 00090fd4  WriteData: 6dcb69db 
# Status: Burst-No:           8  Write Address: 00090fd4  WriteData: a6fcde4d 
# Status: Burst-No:           9  Write Address: 00090fd4  WriteData: 6cb0b7d9 
# Status: Burst-No:          10  Write Address: 00090fd4  WriteData: b6a4266d 
# Status: Burst-No:          11  Write Address: 00090fd4  WriteData: bb45e276 
# Status: Burst-No:          12  Write Address: 00090fd4  WriteData: 653b49ca 
# Status: Burst-No:          13  Write Address: 00090fd4  WriteData: 5b172db6 
# Status: Burst-No:          14  Write Address: 00090fd4  WriteData: 4a937195 
# Write Address: 000a0fd8, Burst Size:  15
# Status: Burst-No:           0  Write Address: 000a0fd8  WriteData: a3071a46 
# Status: Burst-No:           1  Write Address: 000a0fd8  WriteData: 02749b04 
# Status: Burst-No:           2  Write Address: 000a0fd8  WriteData: 7bd261f7 
# Status: Burst-No:           3  Write Address: 000a0fd8  WriteData: 34980769 
# Status: Burst-No:           4  Write Address: 000a0fd8  WriteData: da6ebab4 
# Status: Burst-No:           5  Write Address: 000a0fd8  WriteData: 44018d88 
# Status: Burst-No:           6  Write Address: 000a0fd8  WriteData: 147cd928 
# Status: Burst-No:           7  Write Address: 000a0fd8  WriteData: 9690042d 
# Status: Burst-No:           8  Write Address: 000a0fd8  WriteData: e3c530c7 
# Status: Burst-No:           9  Write Address: 000a0fd8  WriteData: 975c9c2e 
# Status: Burst-No:          10  Write Address: 000a0fd8  WriteData: 8477e408 
# Status: Burst-No:          11  Write Address: 000a0fd8  WriteData: 0e41451c 
# Status: Burst-No:          12  Write Address: 000a0fd8  WriteData: fea7a6fd 
# Status: Burst-No:          13  Write Address: 000a0fd8  WriteData: 149e0729 
# Status: Burst-No:          14  Write Address: 000a0fd8  WriteData: 8e37901c 
# Write Address: 000b0fdc, Burst Size:  15
# Status: Burst-No:           0  Write Address: 000b0fdc  WriteData: 43356786 
# Status: Burst-No:           1  Write Address: 000b0fdc  WriteData: ed3408da 
# Status: Burst-No:           2  Write Address: 000b0fdc  WriteData: 9eb7c63d 
# Status: Burst-No:           3  Write Address: 000b0fdc  WriteData: 334ea766 
# Status: Burst-No:           4  Write Address: 000b0fdc  WriteData: b855c470 
# Status: Burst-No:           5  Write Address: 000b0fdc  WriteData: b9f50473 
# Status: Burst-No:           6  Write Address: 000b0fdc  WriteData: 5d7199ba 
# Status: Burst-No:           7  Write Address: 000b0fdc  WriteData: 2f3ab35e 
# Status: Burst-No:           8  Write Address: 000b0fdc  WriteData: 7d4779fa 
# Status: Burst-No:           9  Write Address: 000b0fdc  WriteData: 6a8e05d5 
# Status: Burst-No:          10  Write Address: 000b0fdc  WriteData: 8d24f61a 
# Status: Burst-No:          11  Write Address: 000b0fdc  WriteData: dcf000b9 
# Status: Burst-No:          12  Write Address: 000b0fdc  WriteData: 1b876137 
# Status: Burst-No:          13  Write Address: 000b0fdc  WriteData: 4b273796 
# Status: Burst-No:          14  Write Address: 000b0fdc  WriteData: 603921c0 
# Write Address: 000c0fc0, Burst Size:  15
# Status: Burst-No:           0  Write Address: 000c0fc0  WriteData: 13259f26 
# Status: Burst-No:           1  Write Address: 000c0fc0  WriteData: db461ab6 
# Status: Burst-No:           2  Write Address: 000c0fc0  WriteData: 3e99837d 
# Status: Burst-No:           3  Write Address: 000c0fc0  WriteData: 6e5f0fdc 
# Status: Burst-No:           4  Write Address: 000c0fc0  WriteData: 43615786 
# Status: Burst-No:           5  Write Address: 000c0fc0  WriteData: 3c03ff78 
# Status: Burst-No:           6  Write Address: 000c0fc0  WriteData: 3f5a9b7e 
# Status: Burst-No:           7  Write Address: 000c0fc0  WriteData: ed8d80db 
# Status: Burst-No:           8  Write Address: 000c0fc0  WriteData: e7c3b6cf 
# Status: Burst-No:           9  Write Address: 000c0fc0  WriteData: 3ced2b79 
# Status: Burst-No:          10  Write Address: 000c0fc0  WriteData: fd28e4fa 
# Status: Burst-No:          11  Write Address: 000c0fc0  WriteData: b0bcee61 
# Status: Burst-No:          12  Write Address: 000c0fc0  WriteData: 0b940917 
# Status: Burst-No:          13  Write Address: 000c0fc0  WriteData: d0f578a1 
# Status: Burst-No:          14  Write Address: 000c0fc0  WriteData: 43779186 
# Write Address: 000d0fc4, Burst Size:  15
# Status: Burst-No:           0  Write Address: 000d0fc4  WriteData: a8639650 
# Status: Burst-No:           1  Write Address: 000d0fc4  WriteData: 7a8c59f5 
# Status: Burst-No:           2  Write Address: 000d0fc4  WriteData: 9ab48835 
# Status: Burst-No:           3  Write Address: 000d0fc4  WriteData: 949a8a29 
# Status: Burst-No:           4  Write Address: 000d0fc4  WriteData: 60b175c1 
# Status: Burst-No:           5  Write Address: 000d0fc4  WriteData: e2e574c5 
# Status: Burst-No:           6  Write Address: 000d0fc4  WriteData: cc01b498 
# Status: Burst-No:           7  Write Address: 000d0fc4  WriteData: 25b27b4b 
# Status: Burst-No:           8  Write Address: 000d0fc4  WriteData: b98c4273 
# Status: Burst-No:           9  Write Address: 000d0fc4  WriteData: f622e6ec 
# Status: Burst-No:          10  Write Address: 000d0fc4  WriteData: c550168a 
# Status: Burst-No:          11  Write Address: 000d0fc4  WriteData: 2758d14e 
# Status: Burst-No:          12  Write Address: 000d0fc4  WriteData: d44b80a8 
# Status: Burst-No:          13  Write Address: 000d0fc4  WriteData: 549efda9 
# Status: Burst-No:          14  Write Address: 000d0fc4  WriteData: d0ca8ca1 
# Write Address: 000e0fc8, Burst Size:  15
# Status: Burst-No:           0  Write Address: 000e0fc8  WriteData: 070bb90e 
# Status: Burst-No:           1  Write Address: 000e0fc8  WriteData: f33466e6 
# Status: Burst-No:           2  Write Address: 000e0fc8  WriteData: cfd6c09f 
# Status: Burst-No:           3  Write Address: 000e0fc8  WriteData: 152fb52a 
# Status: Burst-No:           4  Write Address: 000e0fc8  WriteData: 155a1d2a 
# Status: Burst-No:           5  Write Address: 000e0fc8  WriteData: c6b5f48d 
# Status: Burst-No:           6  Write Address: 000e0fc8  WriteData: 4f75ff9e 
# Status: Burst-No:           7  Write Address: 000e0fc8  WriteData: 9c6de638 
# Status: Burst-No:           8  Write Address: 000e0fc8  WriteData: bccfa879 
# Status: Burst-No:           9  Write Address: 000e0fc8  WriteData: 6464e3c8 
# Status: Burst-No:          10  Write Address: 000e0fc8  WriteData: 652345ca 
# Status: Burst-No:          11  Write Address: 000e0fc8  WriteData: 09ff4113 
# Status: Burst-No:          12  Write Address: 000e0fc8  WriteData: 35a0c96b 
# Status: Burst-No:          13  Write Address: 000e0fc8  WriteData: e3b7aec7 
# Status: Burst-No:          14  Write Address: 000e0fc8  WriteData: 5b0bddb6 
# Write Address: 000f0fcc, Burst Size:  15
# Status: Burst-No:           0  Write Address: 000f0fcc  WriteData: 5d059dba 
# Status: Burst-No:           1  Write Address: 000f0fcc  WriteData: 6216abc4 
# Status: Burst-No:           2  Write Address: 000f0fcc  WriteData: 5c8295b9 
# Status: Burst-No:           3  Write Address: 000f0fcc  WriteData: 492fd392 
# Status: Burst-No:           4  Write Address: 000f0fcc  WriteData: da269ab4 
# Status: Burst-No:           5  Write Address: 000f0fcc  WriteData: 3fbb3b7f 
# Status: Burst-No:           6  Write Address: 000f0fcc  WriteData: c3339086 
# Status: Burst-No:           7  Write Address: 000f0fcc  WriteData: 7d6df5fa 
# Status: Burst-No:           8  Write Address: 000f0fcc  WriteData: f92794f2 
# Status: Burst-No:           9  Write Address: 000f0fcc  WriteData: 19452132 
# Status: Burst-No:          10  Write Address: 000f0fcc  WriteData: dece5ebd 
# Status: Burst-No:          11  Write Address: 000f0fcc  WriteData: 424fcd84 
# Status: Burst-No:          12  Write Address: 000f0fcc  WriteData: f249a4e4 
# Status: Burst-No:          13  Write Address: 000f0fcc  WriteData: 6543cfca 
# Status: Burst-No:          14  Write Address: 000f0fcc  WriteData: 54a879a9 
# Write Address: 00100fb0, Burst Size:  15
# Status: Burst-No:           0  Write Address: 00100fb0  WriteData: d095a8a1 
# Status: Burst-No:           1  Write Address: 00100fb0  WriteData: 4765a98e 
# Status: Burst-No:           2  Write Address: 00100fb0  WriteData: fd8b6afb 
# Status: Burst-No:           3  Write Address: 00100fb0  WriteData: 85e51e0b 
# Status: Burst-No:           4  Write Address: 00100fb0  WriteData: f78290ef 
# Status: Burst-No:           5  Write Address: 00100fb0  WriteData: 64c83dc9 
# Status: Burst-No:           6  Write Address: 00100fb0  WriteData: 1b60e536 
# Status: Burst-No:           7  Write Address: 00100fb0  WriteData: bab14875 
# Status: Burst-No:           8  Write Address: 00100fb0  WriteData: c7e8568f 
# Status: Burst-No:           9  Write Address: 00100fb0  WriteData: 35cdbf6b 
# Status: Burst-No:          10  Write Address: 00100fb0  WriteData: 4465e788 
# Status: Burst-No:          11  Write Address: 00100fb0  WriteData: d73fb4ae 
# Status: Burst-No:          12  Write Address: 00100fb0  WriteData: 4df3819b 
# Status: Burst-No:          13  Write Address: 00100fb0  WriteData: 493e4592 
# Status: Burst-No:          14  Write Address: 00100fb0  WriteData: 1444df28 
# Write Address: 00110fb4, Burst Size:  15
# Status: Burst-No:           0  Write Address: 00110fb4  WriteData: 9684e02d 
# Status: Burst-No:           1  Write Address: 00110fb4  WriteData: 25b75f4b 
# Status: Burst-No:           2  Write Address: 00110fb4  WriteData: e169b0c2 
# Status: Burst-No:           3  Write Address: 00110fb4  WriteData: 8f1cf61e 
# Status: Burst-No:           4  Write Address: 00110fb4  WriteData: 06b3050d 
# Status: Burst-No:           5  Write Address: 00110fb4  WriteData: 7679fdec 
# Status: Burst-No:           6  Write Address: 00110fb4  WriteData: 0c039d18 
# Status: Burst-No:           7  Write Address: 00110fb4  WriteData: 68ae1bd1 
# Status: Burst-No:           8  Write Address: 00110fb4  WriteData: c3761c86 
# Status: Burst-No:           9  Write Address: 00110fb4  WriteData: a0c02441 
# Status: Burst-No:          10  Write Address: 00110fb4  WriteData: 9dbf643b 
# Status: Burst-No:          11  Write Address: 00110fb4  WriteData: 6c44f9d8 
# Status: Burst-No:          12  Write Address: 00110fb4  WriteData: 29efe953 
# Status: Burst-No:          13  Write Address: 00110fb4  WriteData: ab196256 
# Status: Burst-No:          14  Write Address: 00110fb4  WriteData: adac225b 
# Write Address: 00120fb8, Burst Size:  15
# Status: Burst-No:           0  Write Address: 00120fb8  WriteData: f166fae2 
# Status: Burst-No:           1  Write Address: 00120fb8  WriteData: 8273e204 
# Status: Burst-No:           2  Write Address: 00120fb8  WriteData: 39ac0373 
# Status: Burst-No:           3  Write Address: 00120fb8  WriteData: ec50b4d8 
# Status: Burst-No:           4  Write Address: 00120fb8  WriteData: 093e4d12 
# Status: Burst-No:           5  Write Address: 00120fb8  WriteData: dc0344b8 
# Status: Burst-No:           6  Write Address: 00120fb8  WriteData: 9c811239 
# Status: Burst-No:           7  Write Address: 00120fb8  WriteData: f287b6e5 
# Status: Burst-No:           8  Write Address: 00120fb8  WriteData: d0c5dca1 
# Status: Burst-No:           9  Write Address: 00120fb8  WriteData: 15890f2b 
# Status: Burst-No:          10  Write Address: 00120fb8  WriteData: 40905d81 
# Status: Burst-No:          11  Write Address: 00120fb8  WriteData: 641b85c8 
# Status: Burst-No:          12  Write Address: 00120fb8  WriteData: 13b55527 
# Status: Burst-No:          13  Write Address: 00120fb8  WriteData: 50d5f9a1 
# Status: Burst-No:          14  Write Address: 00120fb8  WriteData: 8f8c6e1f 
# Write Address: 00130fbc, Burst Size:  15
# Status: Burst-No:           0  Write Address: 00130fbc  WriteData: 82223a04 
# Status: Burst-No:           1  Write Address: 00130fbc  WriteData: 2c2d2358 
# Status: Burst-No:           2  Write Address: 00130fbc  WriteData: cb5c8096 
# Status: Burst-No:           3  Write Address: 00130fbc  WriteData: 0a6e9314 
# Status: Burst-No:           4  Write Address: 00130fbc  WriteData: 8919b412 
# Status: Burst-No:           5  Write Address: 00130fbc  WriteData: cb227096 
# Status: Burst-No:           6  Write Address: 00130fbc  WriteData: d8ace2b1 
# Status: Burst-No:           7  Write Address: 00130fbc  WriteData: 2ac2d555 
# Status: Burst-No:           8  Write Address: 00130fbc  WriteData: f6c38eed 
# Status: Burst-No:           9  Write Address: 00130fbc  WriteData: 158b2b2b 
# Status: Burst-No:          10  Write Address: 00130fbc  WriteData: 7ab11bf5 
# Status: Burst-No:          11  Write Address: 00130fbc  WriteData: 56b403ad 
# Status: Burst-No:          12  Write Address: 00130fbc  WriteData: 93c12227 
# Status: Burst-No:          13  Write Address: 00130fbc  WriteData: 4249ff84 
# Status: Burst-No:          14  Write Address: 00130fbc  WriteData: d3a8e4a7 
# Write Address: 00140fa0, Burst Size:  15
# Status: Burst-No:           0  Write Address: 00140fa0  WriteData: f3d7a6e7 
# Status: Burst-No:           1  Write Address: 00140fa0  WriteData: dcef90b9 
# Status: Burst-No:           2  Write Address: 00140fa0  WriteData: a4da5649 
# Status: Burst-No:           3  Write Address: 00140fa0  WriteData: 6de5bbdb 
# Status: Burst-No:           4  Write Address: 00140fa0  WriteData: 64ba0fc9 
# Status: Burst-No:           5  Write Address: 00140fa0  WriteData: 2883b151 
# Status: Burst-No:           6  Write Address: 00140fa0  WriteData: d0bc5ea1 
# Status: Burst-No:           7  Write Address: 00140fa0  WriteData: 1546dd2a 
# Status: Burst-No:           8  Write Address: 00140fa0  WriteData: 7d2a45fa 
# Status: Burst-No:           9  Write Address: 00140fa0  WriteData: a2e62045 
# Status: Burst-No:          10  Write Address: 00140fa0  WriteData: 41a10583 
# Status: Burst-No:          11  Write Address: 00140fa0  WriteData: be75427c 
# Status: Burst-No:          12  Write Address: 00140fa0  WriteData: b9461472 
# Status: Burst-No:          13  Write Address: 00140fa0  WriteData: ff4f3cfe 
# Status: Burst-No:          14  Write Address: 00140fa0  WriteData: b455f268 
# Write Address: 00150fa4, Burst Size:  15
# Status: Burst-No:           0  Write Address: 00150fa4  WriteData: b7dfaa6f 
# Status: Burst-No:           1  Write Address: 00150fa4  WriteData: 43460d86 
# Status: Burst-No:           2  Write Address: 00150fa4  WriteData: 782321f0 
# Status: Burst-No:           3  Write Address: 00150fa4  WriteData: 1c719738 
# Status: Burst-No:           4  Write Address: 00150fa4  WriteData: 20769140 
# Status: Burst-No:           5  Write Address: 00150fa4  WriteData: 94097628 
# Status: Burst-No:           6  Write Address: 00150fa4  WriteData: 7b0da9f6 
# Status: Burst-No:           7  Write Address: 00150fa4  WriteData: e2bf1ac5 
# Status: Burst-No:           8  Write Address: 00150fa4  WriteData: 602831c0 
# Status: Burst-No:           9  Write Address: 00150fa4  WriteData: 3a625f74 
# Status: Burst-No:          10  Write Address: 00150fa4  WriteData: 1cde7139 
# Status: Burst-No:          11  Write Address: 00150fa4  WriteData: d86a6ab0 
# Status: Burst-No:          12  Write Address: 00150fa4  WriteData: 1e1c873c 
# Status: Burst-No:          13  Write Address: 00150fa4  WriteData: 1521932a 
# Status: Burst-No:          14  Write Address: 00150fa4  WriteData: 3124d362 
# Write Address: 00160fa8, Burst Size:  15
# Status: Burst-No:           0  Write Address: 00160fa8  WriteData: 0aec3515 
# Status: Burst-No:           1  Write Address: 00160fa8  WriteData: f0b14ee1 
# Status: Burst-No:           2  Write Address: 00160fa8  WriteData: 0be29d17 
# Status: Burst-No:           3  Write Address: 00160fa8  WriteData: a18bee43 
# Status: Burst-No:           4  Write Address: 00160fa8  WriteData: 64b5e3c9 
# Status: Burst-No:           5  Write Address: 00160fa8  WriteData: c3360486 
# Status: Burst-No:           6  Write Address: 00160fa8  WriteData: 1297cb25 
# Status: Burst-No:           7  Write Address: 00160fa8  WriteData: 60f69dc1 
# Status: Burst-No:           8  Write Address: 00160fa8  WriteData: c69da28d 
# Status: Burst-No:           9  Write Address: 00160fa8  WriteData: ad67e25a 
# Status: Burst-No:          10  Write Address: 00160fa8  WriteData: 03d62707 
# Status: Burst-No:          11  Write Address: 00160fa8  WriteData: 165b7b2c 
# Status: Burst-No:          12  Write Address: 00160fa8  WriteData: 060a5d0c 
